{
	"process_id" : 1330,
	"version" : "2019.3.2f1",
	"app_path" : "/Applications/Unity/Hub/Editor/2019.3.2f1/Unity.app",
	"app_contents_path" : "/Applications/Unity/Hub/Editor/2019.3.2f1/Unity.app/Contents"
}